…
***Question 5 task (3 points):** Create a box plot similar to the one above for the **tmin** variable. Identify two notable patterns evident in this plot.*

We can use the filter command to further specify things, selecting only a single month for comparison over this timeframe.

``` r
daymet_month<-daymet_cty_2005_2015 %>% 
     filter(month=="Mar")
daymet_month
```

    ## # A tibble: 34,485 x 15
    ##    gisjn_cty  year month   dayl  srad  tmax  tmin vap_pres  prcp CTY_NAME
    ##    <chr>     <int> <chr>  <dbl> <dbl> <dbl> <dbl>    <dbl> <int> <chr>   
    ##  1 G01001     2005 Mar   42464.  383.  18.7  5.56     946.   225 Autauga 
    ##  2 G01001     2006 Mar   42464.  402.  20.9  6.92    1044.   122 Autauga 
    ##  3 G01001     2007 Mar   42464.  407.  23.7  7.42    1080.    41 Autauga 
    ##  4 G01001     2008 Mar   42464.  400.  20.9  4.95     916.   156 Autauga 
    ##  5 G01001     2009 Mar   42464.  353.  20.7  7.84    1116.   288 Autauga 
    ##  6 G01001     2010 Mar   42464.  376.  17.3  4.37     862.   137 Autauga 
    ##  7 G01001     2011 Mar   42464.  351.  21.3  7.39    1062.   272 Autauga 
    ##  8 G01001     2012 Mar   42464.  378.  24.5 11.7     1426.   187 Autauga 
    ##  9 G01001     2013 Mar   42464.  402.  17.0  3.24     804.    88 Autauga 
    ## 10 G01001     2014 Mar   42464.  375.  18.8  5.03     897.   199 Autauga 
    ## # ... with 34,475 more rows, and 5 more variables: State <chr>,
    ## #   Region <chr>, Division <chr>, Lon <dbl>, Lat <dbl>
…
