…
This command returns the mean value of solar radiation received by counties in each census region during our study period. You could replace “mean” with “sd” to get a similar summary of standard deviation. You may want to change the new variable name ("mean\_srad") above as well.

Now try a VERY simple model of climate change. Let’s say that 100 years from now, temperatures in these cities will be warmer by exactly 2 degrees Celsius. You can create a new variable showing the projected new minimum temperatures. The command below uses the mutate function from the tidyverse to create a new variable (tmin\_new) with values two degrees higher than the old one (tmin). It then uses select to get just our variables of interest.

``` r
daymet_climatechg<-Daymet_Cty_Summary_2005_2015 %>% 
  mutate(tmin_new=tmin+2) %>% 
  select(tmin,tmin_new)
daymet_climatechg
```

    ## # A tibble: 413,820 x 2
    ##          tmin  tmin_new
    ##         <dbl>     <dbl>
    ##  1  9.4666667 11.466667
    ##  2 22.0322581 24.032258
    ##  3  0.1774194  2.177419
    ##  4  5.4107143  7.410714
    ##  5  3.5483871  5.548387
    ##  6 22.0483871 24.048387
    ##  7 19.7500000 21.750000
    ##  8  5.5645161  7.564516
    ##  9 13.6129032 15.612903
    ## 10  6.8666667  8.866667
    ## # ... with 413,810 more rows
…
Suppose we are just interested in the median. We would then want to create a dataset where the value of tmax is summarized by each year for each census division. You can do so using the combination of group\_by and summarise, similar to the command above.

``` r
daymet_summary_region<-Daymet_Cty_Summary_2005_2015 %>% 
  group_by(Region, year) %>% 
  summarise(tmax_med=median(tmax))
daymet_summary_region
```

    ## # A tibble: 44 x 3
    ## # Groups:   Region [?]
    ##            Region  year tmax_med
    ##             <chr> <int>    <dbl>
    ##  1 Midwest Region  2005 17.70968
    ##  2 Midwest Region  2006 17.18333
    ##  3 Midwest Region  2007 17.77876
    ##  4 Midwest Region  2008 16.20000
    ##  5 Midwest Region  2009 15.10000
    ##  6 Midwest Region  2010 19.03333
    ##  7 Midwest Region  2011 17.16129
    ##  8 Midwest Region  2012 18.69677
    ##  9 Midwest Region  2013 15.48333
    ## 10 Midwest Region  2014 16.90000
    ## # ... with 34 more rows
…
Suppose you wanted to see the distribution of the average maximum temperatures of all counties by region. You can summarise that in this way:

``` r
daymet_summary_county <- Daymet_Cty_Summary_2005_2015 %>% 
  group_by(Region,gisjn_cty) %>% 
  summarise(tmax_mean=mean(tmax))
daymet_summary_county
```

    ## # A tibble: 3,135 x 3
    ## # Groups:   Region [?]
    ##            Region gisjn_cty tmax_mean
    ##             <chr>     <chr>     <dbl>
    ##  1 Midwest Region    G17001  17.10559
    ##  2 Midwest Region    G17003  20.22032
    ##  3 Midwest Region    G17005  18.53646
    ##  4 Midwest Region    G17007  14.33828
    ##  5 Midwest Region    G17009  17.15056
    ##  6 Midwest Region    G17011  15.60495
    ##  7 Midwest Region    G17013  18.11706
    ##  8 Midwest Region    G17015  14.95555
    ##  9 Midwest Region    G17017  17.20915
    ## 10 Midwest Region    G17019  16.70861
    ## # ... with 3,125 more rows
…
We can use the filter command to further specify things, selecting only a single month for comparison over this timeframe.

``` r
daymet_july<-Daymet_Cty_Summary_2005_2015 %>% 
     filter(month=="July")
daymet_july
```

    ## # A tibble: 34,485 x 15
    ##    gisjn_cty  year month     dayl     srad     tmax     tmin vap_pres
    ##        <chr> <int> <chr>    <dbl>    <dbl>    <dbl>    <dbl>    <dbl>
    ##  1    G01001  2005  July 50045.13 350.2452 31.37097 22.04839 2649.032
    ##  2    G01001  2006  July 50045.13 386.4774 34.29032 21.54839 2567.742
    ##  3    G01001  2007  July 50045.13 378.6323 31.96774 21.00000 2122.581
    ##  4    G01001  2008  July 50045.13 387.9226 33.01613 20.53226 2427.097
    ##  5    G01001  2009  July 50045.13 370.8903 31.45161 20.03226 2352.258
    ##  6    G01001  2010  July 50045.13 382.7613 34.37097 22.40323 2710.968
    ##  7    G01001  2011  July 50045.13 349.2129 33.25806 21.88710 2600.000
    ##  8    G01001  2012  July 50045.13 370.0645 33.83871 21.51613 2565.161
    ##  9    G01001  2013  July 50045.13 337.9613 30.04839 20.80645 2454.194
    ## 10    G01001  2014  July 50045.13 398.9677 31.70968 20.29032 2393.548
    ## # ... with 34,475 more rows, and 7 more variables: prcp <int>,
    ## #   CTY_NAME <chr>, State <chr>, Region <chr>, Division <chr>, Lon <dbl>,
    ## #   Lat <dbl>
…
